MWS Result File Version 20140818
:8:1000
visible
internal
persistent
noresult
0
FOLDER
1D Results
Low Frequency:4:3
visible
internal
persistent
noresult
0
XYSIGNAL2
user
Excitation Signals\default
signal_default_lf.sig

Time / ns
Excitation: default
High Frequency:0:2
visible
internal
persistent
noresult
0
XYSIGNAL2
user
Excitation Signals\default
signal_default.sig

Time / ns
Excitation: default
